/Users/hutaurukr/My Data/DanApprenTech/Dana Business/Code/DanaBusiness_Automation/src/test/java/testBase/TestBase.java
/Users/hutaurukr/My Data/DanApprenTech/Dana Business/Code/DanaBusiness_Automation/src/test/java/testCases/TestSuite_Login.java
/Users/hutaurukr/My Data/DanApprenTech/Dana Business/Code/DanaBusiness_Automation/src/test/java/testCases/TestSuite_Logout.java
/Users/hutaurukr/My Data/DanApprenTech/Dana Business/Code/DanaBusiness_Automation/src/test/java/testCases/TestSuite_Register.java
/Users/hutaurukr/My Data/DanApprenTech/Dana Business/Code/DanaBusiness_Automation/src/test/java/testCases/TestSuite_TopUp.java
/Users/hutaurukr/My Data/DanApprenTech/Dana Business/Code/DanaBusiness_Automation/src/test/java/utilities/Listeners.java
/Users/hutaurukr/My Data/DanApprenTech/Dana Business/Code/DanaBusiness_Automation/src/test/java/DanaBusiness_Automation/DanaBusiness_Automation/AppTest.java
